^C:\USERS\DANIEL\SOURCE\REPOS\ROCKET\ROCKET\PCH.CPP
C:\USERS\DANIEL\SOURCE\REPOS\ROCKET\ROCKET\DEBUG\ROCKET.PCH
C:\USERS\DANIEL\SOURCE\REPOS\ROCKET\ROCKET\DEBUG\VC141.PDB
C:\USERS\DANIEL\SOURCE\REPOS\ROCKET\ROCKET\DEBUG\VC141.IDB
C:\USERS\DANIEL\SOURCE\REPOS\ROCKET\ROCKET\DEBUG\PCH.OBJ
^C:\USERS\DANIEL\SOURCE\REPOS\ROCKET\ROCKET\ROCKET.CPP
C:\USERS\DANIEL\SOURCE\REPOS\ROCKET\ROCKET\DEBUG\VC141.PDB
C:\USERS\DANIEL\SOURCE\REPOS\ROCKET\ROCKET\DEBUG\VC141.IDB
C:\USERS\DANIEL\SOURCE\REPOS\ROCKET\ROCKET\DEBUG\ROCKET.OBJ
